-1 0.35322690848236
-0.894736842105263 0.309802259625527
-0.789473684210526 0.124837110617201
-0.684210526315789 -0.179854467282462
-0.578947368421053 -0.521775260580296
-0.473684210526316 -0.778546959604401
-0.368421052631579 -0.834212341288874
-0.263157894736842 -0.632604991636986
-0.157894736842105 -0.211597087256371
-0.0526315789473685 0.301971142652196
0.0526315789473684 0.738545534638979
0.157894736842105 0.953842159707218
0.263157894736842 0.886951458303233
0.368421052631579 0.581374974294357
0.473684210526316 0.160599186123614
0.578947368421053 -0.227654398899546
0.684210526315789 -0.4705301385085
0.789473684210526 -0.526107340970266
0.894736842105263 -0.42454349264334
1 -0.240462049968584


-1 0.347391309237983
-0.984375 0.3553996181594
-0.96875 0.359092842501783
-0.953125 0.358479678207743
-0.9375 0.353602176499973
-0.921875 0.344533482815446
-0.90625 0.331375367256871
-0.890625 0.314255633488175
-0.875 0.293325491281
-0.859375 0.268756973517631
-0.84375 0.240740471546871
-0.828125 0.209482453622393
-0.8125 0.175203420042998
-0.796875 0.138136135931927
-0.78125 0.0985241687532621
-0.765625 0.0566207431149352
-0.75 0.0126879106161038
-0.734375 -0.0330039820663535
-0.71875 -0.0801765575276575
-0.703125 -0.128543447830391
-0.6875 -0.177810165140784
-0.671875 -0.227673866674071
-0.65625 -0.277823084862972
-0.640625 -0.327937498233359
-0.625 -0.377687820385901
-0.609375 -0.426735883638309
-0.59375 -0.474734990255731
-0.578125 -0.521330597843941
-0.5625 -0.566161396539541
-0.546875 -0.608860824320442
-0.53125 -0.649059053370004
-0.515625 -0.686385465318977
-0.5 -0.720471616780277
-0.484375 -0.750954679351491
-0.46875 -0.777481320695335
-0.453125 -0.799711975949684
-0.4375 -0.817325442106239
-0.421875 -0.830023712664488
-0.40625 -0.837536956327356
-0.390625 -0.839628532230937
-0.375 -0.836099925613646
-0.359375 -0.826795482282828
-0.34375 -0.811606818001124
-0.328125 -0.79047678017077
-0.3125 -0.763402844020929
-0.296875 -0.730439833874604
-0.28125 -0.691701871852285
-0.265625 -0.647363471316217
-0.25 -0.597659710125603
-0.234375 -0.542885438917121
-0.21875 -0.483393501620525
-0.203125 -0.419591968669486
-0.1875 -0.351940407223595
-0.171875 -0.280945236495269
-0.15625 -0.207154239278157
-0.140625 -0.131150322313119
-0.125 -0.0535446375452211
-0.109375 0.0250308069867554
-0.09375 0.103930904464182
-0.078125 0.18250542293109
-0.0625 0.260107037733446
-0.046875 0.336099263843329
-0.03125 0.409864132149703
-0.015625 0.480809461128145
0 0.548375586798458
0.015625 0.612041429237535
0.03125 0.671329792704468
0.046875 0.725811818107854
0.0625 0.775110530449988
0.078125 0.818903449280591
0.09375 0.856924256278371
0.109375 0.888963540001876
0.125 0.914868662742549
0.140625 0.934542817411247
0.15625 0.947943362670039
0.171875 0.955079541325551
0.1875 0.956009699666703
0.203125 0.950838133422166
0.21875 0.939711688948994
0.234375 0.92281624593965
0.25 0.900373200345932
0.265625 0.872636053575659
0.28125 0.839887196755237
0.296875 0.802434957625317
0.3125 0.760610953317409
0.328125 0.714767765908517
0.34375 0.665276930490271
0.359375 0.61252719885638
0.375 0.556923017206369
0.390625 0.498883134880923
0.40625 0.438839244407087
0.421875 0.37723454221386
0.4375 0.314522095229944
0.453125 0.251162901850803
0.46875 0.187623546760589
0.484375 0.124373367711666
0.5 0.0618810780638658
0.515625 0.000610820693146025
0.53125 -0.0589823345976204
0.546875 -0.116457398558784
0.5625 -0.171392882895548
0.578125 -0.223392502634851
0.59375 -0.27209099423694
0.609375 -0.317159853986169
0.625 -0.358312780077763
0.640625 -0.395310590606467
0.65625 -0.427965389684392
0.671875 -0.456143765931572
0.6875 -0.47976883171554
0.703125 -0.498820947202257
0.71875 -0.513337019269418
0.734375 -0.523408319726007
0.75 -0.529176827615458
0.765625 -0.530830163746919
0.78125 -0.528595248803451
0.796875 -0.522730876110256
0.8125 -0.513519443182368
0.828125 -0.501258129553534
0.84375 -0.486249839611078
0.859375 -0.46879424632672
0.875 -0.449179273710087
0.890625 -0.427673342154376
0.90625 -0.404518672061946
0.921875 -0.379925898513946
0.9375 -0.354070195307083
0.953125 -0.327089043072809
0.96875 -0.299081706543253
0.984375 -0.270110413750843
1 -0.240203158559781
